General Social Survey · Portfolio website for Alex Pracht
…
We estimate the population proportion of Twitter users by education level in 2016.

There are 5 education levels in variable degree which, in ascneding order of years of education, are Lt high school, High School, Junior college, Bachelor, Graduate.

First, we turn degree from a character variable into a factor variable.
Second, we create a new variable, bachelor_graduate that is Yes if the respondent has either a Bachelor or Graduate degree.

twitter_population <- gss %>% 
  mutate(degree = factor(degree, order = TRUE, levels = c("Lt high school", "High school", "Junior college", "Bachelor", "Graduate")),
         bachelor_graduate = if_else(degree >= "Bachelor", "Yes", "No"))

twitter_population

## # A tibble: 2,867 x 8
##    emailmin emailhr snapchat instagrm twitter sex    degree     bachelor_gradua~
##    <chr>    <chr>   <chr>    <chr>    <chr>   <chr>  <ord>      <chr>           
##  1 0        12      NA       NA       NA      Male   Bachelor   Yes             
##  2 30       0       No       No       No      Male   High scho~ No              
##  3 NA       NA      No       No       No      Male   Bachelor   Yes             
##  4 10       0       NA       NA       NA      Female High scho~ No              
##  5 NA       NA      Yes      Yes      No      Female Graduate   Yes             
##  6 0        2       No       Yes      No      Female Junior co~ No              
##  7 0        40      NA       NA       NA      Male   High scho~ No              
##  8 NA       NA      Yes      Yes      No      Female High scho~ No              
##  9 0        0       NA       NA       NA      Male   High scho~ No              
## 10 NA       NA      No       No       No      Male   Junior co~ No              
## # ... with 2,857 more rows
…
